"VertexlitGeneric"
{
	"$basetexture" "models/doctorwho1200/toyota/roundelstone"
	"$surfaceprop" "Flesh"
	"$nodecal" "1"
        "$selfillum" 1
        "$selfillummask" "models/doctorwho1200/toyota/white"
		"Proxies"
		{
			"AnimatedTexture"
				{
					"animatedTextureVar" "$basetexture"
					"animatedTextureFrameNumVar" "$frame"
					"animatedTextureFrameRate" "20"
				}
		}
}